core depth-master core (cm);age cal_BP;organic matter_%;carbonates_%;non-carbonated terrigeneous fraction_%
0;-60;13,05941144;25,16379789;61,77679067
2;-58;12,28545619;25,87430636;61,84023745
4;-57;11,92935344;26,03800868;62,03263788
6;-55;11,38403401;25,90930562;62,70666037
8;-53;10,83760684;25,97150997;63,19088319
10;-50;10,51212938;25,1212938;64,36657682
12;-42;9,932497589;24,22372228;65,84378014
14;-34;9,631403582;23,57351104;66,79508538
16;-26;9,157965322;22,37762238;68,4644123
18;-17;8,872864085;21,64916131;69,4779746
20;-9;8,93984404;21,12885258;69,93130338
22;-1;9,219530239;20,36249306;70,4179767
24;7;8,682211623;20,74721781;70,57057057
26;15;8,42364532;20,90640394;70,66995074
28;23;8,235591933;20,35271285;71,41169522
30;27;8,174820844;19,98584447;71,83933469
32;32;8,14556425;19,62854719;72,22588856
34;36;8,024173242;19,64075877;72,33506799
36;41;8,08538774;19,52394446;72,3906678
38;45;7,974964668;19,53361599;72,49141934
40;50;7,785527463;19,14559721;73,06887533
44;59;7,454094293;18,55086849;73,99503722
46;63;7,270703886;18,028378;74,70091811
48;68;7,42852207;17,48294031;75,08853762
50;72;7,90157685;16,99012303;75,10830012
52;77;8,128704488;17,31968286;74,55161265
54;81;8,395776567;17,27690736;74,32731608
56;86;8,314838301;17,17660114;74,50856056
58;90;10,04324844;15,81931764;74,13743393
60;94;9,941759477;16,59344028;73,46480025
62;99;9,904673332;16,9030458;73,19228086
64;103;9,749872384;16,5798877;73,67023992
68;112;9,856410256;15,29230769;74,85128205
70;117;9,941070971;15,52651806;74,53241097
72;121;9,955439626;15,61786762;74,42669275
74;126;10,18810371;16,03457041;73,77732588
76;130;10,39963669;16,38283379;73,21752952
78;135;10,57655226;16,92055534;72,5028924
80;139;10,818468;17,3452256;71,8363064
82;153;11,24147949;17,24214996;71,51637054
84;166;10,48164232;17,81484406;71,70351362
86;180;10,27667984;18,19279754;71,53052262
88;193;10,11815252;18,33512352;71,54672395
90;207;10,00290501;19,27955844;70,71753655
92;221;9,923890481;19,3337946;70,74231492
94;234;9,873780324;19,6490914;70,47712828
96;248;9,886837403;19,60492357;70,50823903
104;298;10,03180373;18,7187642;71,24943208
106;309;9,87197724;19,08013276;71,04789
108;321;9,489981785;19,83606557;70,67395264
110;332;9,367834916;20,36248499;70,2696801
112;343;9,259615385;20,89423077;69,84615385
114;355;9,759164329;20,51455653;69,72627914
116;366;9,511253414;20,74583294;69,74291365
118;378;9,358468789;21,29460421;69,346927
120;389;9,253365973;21,3871889;69,35944512
122;401;9,03949293;22,28181375;68,67869332
124;416;9,68627451;22,24509804;68,06862745
126;432;9,476357952;22,86049238;67,66314967
127;440;9,208715596;21,90366972;68,88761468
129;455;9,140023027;21,30900717;69,5509698
131;471;9,272521674;20,7972107;69,93026762
133;487;9,194977843;20,42097489;70,38404727
135;502;9,252105002;19,54432888;71,20356612
137;518;9,199607388;21,53118587;69,26920675
139;533;9,337349398;21,52245345;69,14019715
141;549;9,55050841;21,25819633;69,19129526
143;565;9,743960916;20,22075455;70,03528454
145;580;8,991250126;21,54279393;69,46595595
147;585;8,849906376;21,52360304;69,62649059
149;590;8,793720191;21,64149444;69,56478537
151;595;8,796943435;22,16941571;69,03364085
153;600;8,965221125;21,80334908;69,2314298
155;605;8,963585434;21,40702435;69,62939022
157;610;8,850892633;21,39803872;69,75106864
159;615;8,695652174;21,37244631;69,93190152
161;620;8,43373494;21,06987952;70,49638554
163;625;8,658218052;22,26951727;69,07226468
165;630;8,667720893;22,47479739;68,85748172
167;635;8,542943382;22,39092655;69,06613006
169;640;9,106848185;21,81311881;69,080033
171;645;8,678443865;22,40563761;68,91591852
173;649;8,470167452;22,94748821;68,58234433
175;654;8,110394417;23,6861584;68,20344718
177;659;8,138794567;24,14049236;67,72071307
179;664;7,626300547;25,38882334;66,98487611
182;672;7,510022272;24,81959911;67,67037862
184;677;7,191366639;26,00241883;66,80621453
186;682;7,354366319;26,33789168;66,307742
188;687;7,818799066;24,41120306;67,76999788
190;691;8,216587881;21,12591319;70,65749893
192;696;8,406072106;20,37950664;71,21442125
194;701;8,795865633;20,17571059;71,02842377
196;706;8,145087236;22,96602388;68,88888889
198;711;8,085948544;22,52379606;69,3902554
200;716;7,97841588;19,81113895;72,21044517
202;721;7,672704105;17,7300446;74,5972513
204;726;7,789050941;24,00126823;68,20968083
206;731;7,860313011;22,12099977;70,01868722
208;736;8,074137196;20,57946314;71,34639966
210;741;7,728133881;18,33754342;73,9343227
212;746;7,887032891;19,49371448;72,61925263
214;751;8,523886205;23,3064949;68,16961889
216;756;8,361204013;23,32537028;68,3134257
218;761;8,512128908;22,70776776;68,78010334
220;766;8,676133761;20,47640861;70,84745763
222;770;8,897407445;20,7807929;70,32179966
224;775;9,394519863;21,75397685;68,85150329
226;780;10,39963669;16,53042688;73,06993642
228;785;8,688405797;15,72463768;75,58695652
230;790;7,975331137;16,72156423;75,30310463
232;795;8,447937132;17,76210038;73,78996249
234;800;8,263406058;16,57476225;75,1618317
236;805;8,39700489;17,21424205;74,38875306
238;810;8,518710122;17,31332988;74,16795999
240;815;8,365589699;15,37246228;76,26194802
242;820;8,753943218;17,23624255;74,00981423
244;825;8,593040847;16,67927383;74,72768533
246;830;8,32456921;15,93722191;75,73820888
248;835;9,764218862;15,94672426;74,28905688
250;840;10,06455885;15,46101639;74,47442476
252;845;9,037643471;16,21317923;74,7491773
254;849;8,676087471;15,82853083;75,4953817
256;854;8,582003238;15,6681317;75,74986506
264;868;8,454916837;13,77297928;77,77210388
266;871;8,473165996;12,97323533;78,55359867
268;873;8,0131209;11,12152452;80,86535458
270;875;8,4299158;11,93660228;79,63348192
272;877;8,262413724;12,53769349;79,19989278
274;879;8,326241135;12,84397163;78,82978723
276;881;8,207436641;13,34402171;78,44854165
282;887;8,882777587;14,02543829;77,09178412
284;890;8,595186695;13,41648677;77,98832654
286;892;8,553571429;12,49107143;78,95535714
288;894;9,184894053;13,46548189;77,34962406
290;896;8,8934148;13,67579392;77,43079128
292;898;9,020521687;12,72645268;78,25302563
294;900;9,17791411;13,88957055;76,93251534
296;902;9,004850571;15,35753403;75,6376154
298;904;9,115745378;15,81823149;75,06602313
300;906;8,271828436;14,52443949;77,20373207
302;909;8,092868988;13,81757877;78,08955224
304;911;7,898957498;12,97781342;79,12322908
306;913;7,909882089;12,71055587;79,37956204
308;915;8,126465594;12,08053691;79,79299749
310;917;8,001913352;12,40945743;79,58862922
312;919;7,884224543;13,13336604;78,98240942
316;923;8,184196035;13,89730176;77,9185022
318;925;8,229803006;15,14173931;76,62845768
320;928;8,801240096;15,31174647;75,88701343
322;930;8,71391477;15,29708263;75,9890026
324;932;8,801498127;15,66292135;75,53558052
326;934;8,010921343;16,10898106;75,88009759
328;936;8,036732109;12,14059531;79,82267258
330;938;7,290044327;15,06529292;77,64466275
332;940;8,244000653;11,98236927;79,77363008
334;942;8,642232403;10,44877135;80,90899625
336;944;8,457186691;9,895483747;81,64732956
338;947;8,14974802;10;81,85025198
340;949;8,31204768;9,684972329;82,00297999
342;951;8,627196603;9,470456422;81,90234697
344;953;11,70674683;12,61690047;75,67635271
346;961;9,964862966;10,68165847;79,35347857
348;976;9,627055059;10,26701975;80,10592519
350;990;9,696851924;11,75022671;78,55292136
352;1005;9,699753222;11,63970387;78,66054291
354;1012;9,260342055;12,83438094;77,90527701
356;1019;8,730466228;11,73317835;79,53635542
358;1026;9,146908415;10,82635983;80,02673175
360;1033;8,304969367;11,882611;79,81241964
362;1040;8,053109154;7,946357086;84,00053376
364;1047;8,8549194;11,8954975;79,2495831
366;1054;10,14758937;11,51197114;78,34043949
368;1061;9,492345937;9,302629857;81,20502421
370;1068;8,950043387;11,39828933;79,65166729
372;1075;9,293495176;10,40149393;80,30501089
374;1081;9,315789474;10,12280702;80,56140351
376;1088;9,612266955;12,75330992;77,63442313
378;1095;8,154457694;12,83361726;79,01192504
380;1102;8,152558359;11,86630512;79,98113652
382;1109;8,490932642;12,27331606;79,2357513
384;1116;9,560601989;11,16635313;79,27304488
386;1123;10,27117385;10,41357107;79,31525508
388;1130;9,453660411;9,152629219;81,39371037
390;1137;9,698214792;8,890620572;81,41116464
392;1144;9,26217671;7,082841014;83,65498228
394;1151;7,725513546;9,03542721;83,23905924
396;1158;9,511635529;10,19993445;80,28843002
398;1165;7,991308547;8,957025592;83,05166586
400;1172;8,22957997;8,079080586;83,69133944
402;1179;8,306247743;8,932225834;82,76152642
404;1186;8,316032295;9,186851211;82,49711649
406;1193;7,217039254;5,562400986;87,22055976
408;1200;7,033861357;5,551518675;87,41461997
410;1207;6,988679245;5,222641509;87,78867925
412;1214;7,903924033;4,175394498;87,92068147
414;1221;8,392287419;3,856290748;87,75142183
416;1228;8,882322267;3,858856249;87,25882148
418;1235;8,100679878;3,99247794;87,90684218
420;1242;9,005751849;5,456039441;85,53820871
422;1248;8,861738324;4,763377668;86,37488401
424;1255;8,50129199;3,811369509;87,6873385
426;1262;8,272881618;3,318413335;88,40870505
428;1269;7,798369162;2,609340252;89,59229059
430;1276;8,637367659;2,193617183;89,16901516
432;1300;9,005128205;2,328205128;88,66666667
434;1324;8,725062077;2,431715044;88,84322288
436;1348;8,645663589;2,37189933;88,98243708
438;1372;9,00241136;2,205948022;88,79164062
440;1396;8,954116774;2,288862986;88,75702024
442;1420;9,594640627;2,622913591;87,78244578
444;1444;10,90651558;3,510724403;85,58276002
446;1468;25,73783272;6,069718231;68,19244905
448;1492;27,09718944;8,302939283;64,59987127
450;1516;11,14692908;10,24770954;78,60536138
452;1559;9,921496576;3,123434107;86,95506932
454;1602;12,4148769;16,4833246;71,1017985
456;1645;31,31607729;5,35909588;63,32482683
458;1688;29,29188967;6,689995883;64,01811445
460;1731;32,44811426;5,802276278;61,74960946
462;1774;29,53399233;5,910833165;64,5551745
464;1817;25,00573526;6,675843083;68,31842166
466;1860;27,93228537;10,60056429;61,46715034
468;1903;30,01831502;6,208791209;63,77289377
470;1946;25,44918999;5,729013255;68,82179676
472;1989;21,43764749;7,514975495;71,04737702
474;2032;27,28254997;6,356924185;66,36052584
476;2075;19,55538068;5,528231359;74,91638796
478;2118;20,55382215;7,761310452;71,68486739
480;2160;23,12532774;9,910854746;66,96381751
482;2203;14,85319516;21,17875648;63,96804836
484;2246;20,17815647;8,481797057;71,34004648
486;2289;22,52595889;12,46026701;65,0137741
488;2332;17,49619648;9,954357748;72,54944577
490;2375;17,93452094;10,35146846;71,71401059
492;2418;22,62809512;11,64501103;65,72689385
494;2461;39,96165434;4,053683922;55,98466174
496;2504;47,64635603;3,990442055;48,36320191
498;2547;52,62123198;3,505897772;43,87287025
500;2602;56,0774267;3,017364076;40,90520922
502;2670;44,59484866;3,741304757;51,66384659
504;2737;48,17863758;3,560403375;48,26095905
506;2805;53,0428769;3,57307515;43,38404795
508;2872;51,86155285;3,40505145;44,7333957
510;2939;63,49378042;3,028664143;33,47755544
512;3099;53,58336428;3,304864463;43,11177126
514;3259;46,61082976;3,661862096;49,72730814
516;3418;38,48567245;3,974064003;57,54026354
518;3578;53,72519656;3,350804942;42,9239985
520;3738;64,28428027;3,192130094;32,52358964
522;3897;54,70180925;3,6631673;41,63502345
524;4057;50,27855153;3,864902507;45,85654596
526;4314;64,40996709;4,184297132;31,40573578
528;4571;54,42978322;9,754948162;35,81526861
530;4827;26,14980289;26,07471372;47,77548339
532;5084;29,45801741;20,1628756;50,37910699
534;5238;34,49954366;9,583206571;55,91724977
536;5392;42,78286705;9,259717752;47,9574152
538;5545;25,66716642;19,46026987;54,87256372
540;5699;32,57321708;16,27543036;51,15135256
542;5853;38,06842789;13,77219576;48,15937635
544;6006;33,24063232;22,89227166;43,86709602
546;6160;31,86033034;21,83425094;46,30541872
548;6314;16,72767204;29,42898975;53,84333821
550;6467;14,946852;32,06868357;52,98446443
